
{
  "id" : "qiplx0",
  "categories" : [
    "surface",
    "leaf",
    "fallen"
  ],
  "name"       : "qiplx0",
  "tags"       : [
    "Yellow",
    "green",
    "dried",
    "dry",
    "old"
  ],
  "environment" : {
    "region" : "Asia",
    "biome"  : "mediterranean-forest"
  },
  "averageColor" : "#766C40",
  "previews"     : {
    "images" : [
      {
        "resolution" : "360x360",
        "uri"        : "qiplx_Thumb.png",
        "tags"       : [
          "thumb"
        ]
      },
      {
        "resolution" : "720x720",
        "uri"        : "qiplx_Thumb_Retina.png",
        "tags"       : [
          "thumb",
          "retina"
        ]
      },
      {
        "resolution" : "1450x816",
        "uri"        : "qiplx_Preview.jpg",
        "tags"       : [
          "preview"
        ]
      },
      {
        "resolution" : "2900x1632",
        "uri"        : "qiplx_Preview_Retina.jpg",
        "tags"       : [
          "preview",
          "retina"
        ]
      },
      {
        "resolution" : "1450x816",
        "uri"        : "qiplx_PreviewClay.jpg",
        "tags"       : [
          "preview",
          "clay"
        ]
      },
      {
        "resolution" : "2900x1632",
        "uri"        : "qiplx_PreviewClay_Retina.jpg",
        "tags"       : [
          "preview",
          "clay",
          "retina"
        ]
      },
      {
        "resolution" : "360x360",
        "uri"        : "qiplx_ThumbClay.png",
        "tags"       : [
          "thumb",
          "clay"
        ]
      },
      {
        "resolution" : "720x720",
        "uri"        : "qiplx_ThumbClay_Retina.png",
        "tags"       : [
          "thumb",
          "clay",
          "retina"
        ]
      },
      {
        "resolution" : "1450x816",
        "uri"        : "qiplx_Tiled.jpg",
        "tags"       : [
          "preview",
          "tiled"
        ]
      },
      {
        "resolution" : "2900x1632",
        "uri"        : "qiplx_Tiled_Retina.jpg",
        "tags"       : [
          "preview",
          "tiled",
          "retina"
        ]
      },
      {
        "resolution" : "1450x816",
        "uri"        : "qiplx_Cropped.jpg",
        "tags"       : [
          "preview",
          "cropped"
        ]
      },
      {
        "resolution" : "2900x1632",
        "uri"        : "qiplx_Cropped_Retina.jpg",
        "tags"       : [
          "preview",
          "cropped",
          "retina"
        ]
      },
      {
        "resolution" : "2048x2048",
        "uri"        : "qiplx_Bake.jpg",
        "tags"       : [
          "bake"
        ]
      }
    ],
    "relativeSize" : "1x1"
  },
  "properties"   : [
  ],
  "meta"         : [
    {
      "name" : "Scan Area",
      "key"  : "scanArea",
      "value" : "0.5x0.5 m"
    },
    {
      "name" : "Height",
      "key"  : "height",
      "value" : "0.058 m"
    },
    {
      "name" : "Tileable",
      "key"  : "tileable",
      "value" : true
    },
    {
      "name" : "Texel Density",
      "key"  : "texelDensity",
      "value" : "7593 px/m"
    },
    {
      "name" : "Calibration",
      "key"  : "calibration",
      "value" : "X-Rite ColorChecker Classic"
    },
    {
      "name" : "Scanner",
      "key"  : "scanner",
      "value" : "MKII"
    }
  ],
  "components"   : [
    {
      "type" : "albedo",
      "name" : "Albedo",
      "minIntensity" : 45,
      "maxIntensity" : 118,
      "averageColor" : "#5D511E",
      "colorSpace"   : "sRGB",
      "uris"         : [
        {
          "physicalSize" : "0.5x0.5",
          "resolutions"  : [
            {
              "resolution" : "4096x4096",
              "formats"    : [
                {
                  "mimeType" : "image/x-exr",
                  "bitDepth" : 16,
                  "uri"      : "qiplx_4K_Albedo.exr"
                },
                {
                  "mimeType" : "image/jpeg",
                  "bitDepth" : 8,
                  "uri"      : "qiplx_4K_Albedo.jpg"
                }
              ]
            },
            {
              "resolution" : "2048x2048",
              "formats"    : [
                {
                  "mimeType" : "image/x-exr",
                  "bitDepth" : 16,
                  "uri"      : "qiplx_2K_Albedo.exr"
                },
                {
                  "mimeType" : "image/jpeg",
                  "bitDepth" : 8,
                  "uri"      : "qiplx_2K_Albedo.jpg"
                }
              ]
            },
            {
              "resolution" : "1024x1024",
              "formats"    : [
                {
                  "mimeType" : "image/x-exr",
                  "bitDepth" : 16,
                  "uri"      : "qiplx_1K_Albedo.exr"
                },
                {
                  "mimeType" : "image/jpeg",
                  "bitDepth" : 8,
                  "uri"      : "qiplx_1K_Albedo.jpg"
                }
              ]
            },
            {
              "resolution" : "512x512",
              "formats"    : [
                {
                  "mimeType" : "image/x-exr",
                  "bitDepth" : 16,
                  "uri"      : "qiplx_512_Albedo.exr"
                },
                {
                  "mimeType" : "image/jpeg",
                  "bitDepth" : 8,
                  "uri"      : "qiplx_512_Albedo.jpg"
                }
              ]
            },
            {
              "resolution" : "256x256",
              "formats"    : [
                {
                  "mimeType" : "image/x-exr",
                  "bitDepth" : 16,
                  "uri"      : "qiplx_256_Albedo.exr"
                },
                {
                  "mimeType" : "image/jpeg",
                  "bitDepth" : 8,
                  "uri"      : "qiplx_256_Albedo.jpg"
                }
              ]
            }
          ]
        }
      ]
    },
    {
      "type" : "ao",
      "name" : "AO",
      "minIntensity" : 235,
      "maxIntensity" : 255,
      "averageColor" : "#F1F1F1",
      "colorSpace"   : "sRGB",
      "uris"         : [
        {
          "physicalSize" : "0.5x0.5",
          "resolutions"  : [
            {
              "resolution" : "4096x4096",
              "formats"    : [
                {
                  "mimeType" : "image/x-exr",
                  "bitDepth" : 32,
                  "uri"      : "qiplx_4K_AO.exr"
                },
                {
                  "mimeType" : "image/jpeg",
                  "bitDepth" : 8,
                  "uri"      : "qiplx_4K_AO.jpg"
                }
              ]
            },
            {
              "resolution" : "2048x2048",
              "formats"    : [
                {
                  "mimeType" : "image/x-exr",
                  "bitDepth" : 32,
                  "uri"      : "qiplx_2K_AO.exr"
                },
                {
                  "mimeType" : "image/jpeg",
                  "bitDepth" : 8,
                  "uri"      : "qiplx_2K_AO.jpg"
                }
              ]
            },
            {
              "resolution" : "1024x1024",
              "formats"    : [
                {
                  "mimeType" : "image/x-exr",
                  "bitDepth" : 32,
                  "uri"      : "qiplx_1K_AO.exr"
                },
                {
                  "mimeType" : "image/jpeg",
                  "bitDepth" : 8,
                  "uri"      : "qiplx_1K_AO.jpg"
                }
              ]
            },
            {
              "resolution" : "512x512",
              "formats"    : [
                {
                  "mimeType" : "image/x-exr",
                  "bitDepth" : 32,
                  "uri"      : "qiplx_512_AO.exr"
                },
                {
                  "mimeType" : "image/jpeg",
                  "bitDepth" : 8,
                  "uri"      : "qiplx_512_AO.jpg"
                }
              ]
            },
            {
              "resolution" : "256x256",
              "formats"    : [
                {
                  "mimeType" : "image/x-exr",
                  "bitDepth" : 32,
                  "uri"      : "qiplx_256_AO.exr"
                },
                {
                  "mimeType" : "image/jpeg",
                  "bitDepth" : 8,
                  "uri"      : "qiplx_256_AO.jpg"
                }
              ]
            }
          ]
        }
      ]
    },
    {
      "type" : "cavity",
      "name" : "Cavity",
      "minIntensity" : 0,
      "maxIntensity" : 255,
      "averageColor" : "#C5C5C5",
      "colorSpace"   : "sRGB",
      "uris"         : [
        {
          "physicalSize" : "0.5x0.5",
          "resolutions"  : [
            {
              "resolution" : "4096x4096",
              "formats"    : [
                {
                  "mimeType" : "image/x-exr",
                  "bitDepth" : 32,
                  "uri"      : "qiplx_4K_Cavity.exr"
                },
                {
                  "mimeType" : "image/jpeg",
                  "bitDepth" : 8,
                  "uri"      : "qiplx_4K_Cavity.jpg"
                }
              ]
            },
            {
              "resolution" : "2048x2048",
              "formats"    : [
                {
                  "mimeType" : "image/x-exr",
                  "bitDepth" : 32,
                  "uri"      : "qiplx_2K_Cavity.exr"
                },
                {
                  "mimeType" : "image/jpeg",
                  "bitDepth" : 8,
                  "uri"      : "qiplx_2K_Cavity.jpg"
                }
              ]
            },
            {
              "resolution" : "1024x1024",
              "formats"    : [
                {
                  "mimeType" : "image/x-exr",
                  "bitDepth" : 32,
                  "uri"      : "qiplx_1K_Cavity.exr"
                },
                {
                  "mimeType" : "image/jpeg",
                  "bitDepth" : 8,
                  "uri"      : "qiplx_1K_Cavity.jpg"
                }
              ]
            },
            {
              "resolution" : "512x512",
              "formats"    : [
                {
                  "mimeType" : "image/x-exr",
                  "bitDepth" : 32,
                  "uri"      : "qiplx_512_Cavity.exr"
                },
                {
                  "mimeType" : "image/jpeg",
                  "bitDepth" : 8,
                  "uri"      : "qiplx_512_Cavity.jpg"
                }
              ]
            },
            {
              "resolution" : "256x256",
              "formats"    : [
                {
                  "mimeType" : "image/x-exr",
                  "bitDepth" : 32,
                  "uri"      : "qiplx_256_Cavity.exr"
                },
                {
                  "mimeType" : "image/jpeg",
                  "bitDepth" : 8,
                  "uri"      : "qiplx_256_Cavity.jpg"
                }
              ]
            }
          ]
        }
      ]
    },
    {
      "type" : "displacement",
      "name" : "Displacement",
      "minIntensity" : 90,
      "maxIntensity" : 164,
      "averageColor" : "#7F7F7F",
      "colorSpace"   : "Linear",
      "uris"         : [
        {
          "physicalSize" : "0.5x0.5",
          "resolutions"  : [
            {
              "resolution" : "4096x4096",
              "formats"    : [
                {
                  "mimeType" : "image/x-exr",
                  "bitDepth" : 32,
                  "uri"      : "qiplx_4K_Displacement.exr"
                },
                {
                  "mimeType" : "image/jpeg",
                  "bitDepth" : 8,
                  "uri"      : "qiplx_4K_Displacement.jpg"
                }
              ]
            },
            {
              "resolution" : "2048x2048",
              "formats"    : [
                {
                  "mimeType" : "image/x-exr",
                  "bitDepth" : 32,
                  "uri"      : "qiplx_2K_Displacement.exr"
                },
                {
                  "mimeType" : "image/jpeg",
                  "bitDepth" : 8,
                  "uri"      : "qiplx_2K_Displacement.jpg"
                }
              ]
            },
            {
              "resolution" : "1024x1024",
              "formats"    : [
                {
                  "mimeType" : "image/x-exr",
                  "bitDepth" : 32,
                  "uri"      : "qiplx_1K_Displacement.exr"
                },
                {
                  "mimeType" : "image/jpeg",
                  "bitDepth" : 8,
                  "uri"      : "qiplx_1K_Displacement.jpg"
                }
              ]
            },
            {
              "resolution" : "512x512",
              "formats"    : [
                {
                  "mimeType" : "image/x-exr",
                  "bitDepth" : 32,
                  "uri"      : "qiplx_512_Displacement.exr"
                },
                {
                  "mimeType" : "image/jpeg",
                  "bitDepth" : 8,
                  "uri"      : "qiplx_512_Displacement.jpg"
                }
              ]
            },
            {
              "resolution" : "256x256",
              "formats"    : [
                {
                  "mimeType" : "image/x-exr",
                  "bitDepth" : 32,
                  "uri"      : "qiplx_256_Displacement.exr"
                },
                {
                  "mimeType" : "image/jpeg",
                  "bitDepth" : 8,
                  "uri"      : "qiplx_256_Displacement.jpg"
                }
              ]
            }
          ]
        }
      ]
    },
    {
      "type" : "bump",
      "name" : "Bump",
      "minIntensity" : 98,
      "maxIntensity" : 160,
      "averageColor" : "#808080",
      "colorSpace"   : "Linear",
      "uris"         : [
        {
          "physicalSize" : "0.5x0.5",
          "resolutions"  : [
            {
              "resolution" : "4096x4096",
              "formats"    : [
                {
                  "mimeType" : "image/x-exr",
                  "bitDepth" : 32,
                  "uri"      : "qiplx_4K_Bump.exr"
                },
                {
                  "mimeType" : "image/jpeg",
                  "bitDepth" : 8,
                  "uri"      : "qiplx_4K_Bump.jpg"
                }
              ]
            },
            {
              "resolution" : "2048x2048",
              "formats"    : [
                {
                  "mimeType" : "image/x-exr",
                  "bitDepth" : 32,
                  "uri"      : "qiplx_2K_Bump.exr"
                },
                {
                  "mimeType" : "image/jpeg",
                  "bitDepth" : 8,
                  "uri"      : "qiplx_2K_Bump.jpg"
                }
              ]
            },
            {
              "resolution" : "1024x1024",
              "formats"    : [
                {
                  "mimeType" : "image/x-exr",
                  "bitDepth" : 32,
                  "uri"      : "qiplx_1K_Bump.exr"
                },
                {
                  "mimeType" : "image/jpeg",
                  "bitDepth" : 8,
                  "uri"      : "qiplx_1K_Bump.jpg"
                }
              ]
            },
            {
              "resolution" : "512x512",
              "formats"    : [
                {
                  "mimeType" : "image/x-exr",
                  "bitDepth" : 32,
                  "uri"      : "qiplx_512_Bump.exr"
                },
                {
                  "mimeType" : "image/jpeg",
                  "bitDepth" : 8,
                  "uri"      : "qiplx_512_Bump.jpg"
                }
              ]
            },
            {
              "resolution" : "256x256",
              "formats"    : [
                {
                  "mimeType" : "image/x-exr",
                  "bitDepth" : 32,
                  "uri"      : "qiplx_256_Bump.exr"
                },
                {
                  "mimeType" : "image/jpeg",
                  "bitDepth" : 8,
                  "uri"      : "qiplx_256_Bump.jpg"
                }
              ]
            }
          ]
        }
      ]
    },
    {
      "type" : "gloss",
      "name" : "Gloss",
      "minIntensity" : 0,
      "maxIntensity" : 74,
      "averageColor" : "#272727",
      "colorSpace"   : "Linear",
      "uris"         : [
        {
          "physicalSize" : "0.5x0.5",
          "resolutions"  : [
            {
              "resolution" : "4096x4096",
              "formats"    : [
                {
                  "mimeType" : "image/x-exr",
                  "bitDepth" : 32,
                  "uri"      : "qiplx_4K_Gloss.exr"
                },
                {
                  "mimeType" : "image/jpeg",
                  "bitDepth" : 8,
                  "uri"      : "qiplx_4K_Gloss.jpg"
                }
              ]
            },
            {
              "resolution" : "2048x2048",
              "formats"    : [
                {
                  "mimeType" : "image/x-exr",
                  "bitDepth" : 32,
                  "uri"      : "qiplx_2K_Gloss.exr"
                },
                {
                  "mimeType" : "image/jpeg",
                  "bitDepth" : 8,
                  "uri"      : "qiplx_2K_Gloss.jpg"
                }
              ]
            },
            {
              "resolution" : "1024x1024",
              "formats"    : [
                {
                  "mimeType" : "image/x-exr",
                  "bitDepth" : 32,
                  "uri"      : "qiplx_1K_Gloss.exr"
                },
                {
                  "mimeType" : "image/jpeg",
                  "bitDepth" : 8,
                  "uri"      : "qiplx_1K_Gloss.jpg"
                }
              ]
            },
            {
              "resolution" : "512x512",
              "formats"    : [
                {
                  "mimeType" : "image/x-exr",
                  "bitDepth" : 32,
                  "uri"      : "qiplx_512_Gloss.exr"
                },
                {
                  "mimeType" : "image/jpeg",
                  "bitDepth" : 8,
                  "uri"      : "qiplx_512_Gloss.jpg"
                }
              ]
            },
            {
              "resolution" : "256x256",
              "formats"    : [
                {
                  "mimeType" : "image/x-exr",
                  "bitDepth" : 32,
                  "uri"      : "qiplx_256_Gloss.exr"
                },
                {
                  "mimeType" : "image/jpeg",
                  "bitDepth" : 8,
                  "uri"      : "qiplx_256_Gloss.jpg"
                }
              ]
            }
          ]
        }
      ]
    },
    {
      "type" : "normal",
      "name" : "Normal",
      "minIntensity" : 84,
      "maxIntensity" : 190,
      "averageColor" : "#7F7EE6",
      "colorSpace"   : "Linear",
      "uris"         : [
        {
          "physicalSize" : "0.5x0.5",
          "resolutions"  : [
            {
              "resolution" : "4096x4096",
              "formats"    : [
                {
                  "mimeType" : "image/x-exr",
                  "bitDepth" : 16,
                  "uri"      : "qiplx_4K_Normal.exr"
                },
                {
                  "mimeType" : "image/jpeg",
                  "bitDepth" : 8,
                  "uri"      : "qiplx_4K_Normal.jpg"
                }
              ]
            },
            {
              "resolution" : "2048x2048",
              "formats"    : [
                {
                  "mimeType" : "image/x-exr",
                  "bitDepth" : 16,
                  "uri"      : "qiplx_2K_Normal.exr"
                },
                {
                  "mimeType" : "image/jpeg",
                  "bitDepth" : 8,
                  "uri"      : "qiplx_2K_Normal.jpg"
                }
              ]
            },
            {
              "resolution" : "1024x1024",
              "formats"    : [
                {
                  "mimeType" : "image/x-exr",
                  "bitDepth" : 16,
                  "uri"      : "qiplx_1K_Normal.exr"
                },
                {
                  "mimeType" : "image/jpeg",
                  "bitDepth" : 8,
                  "uri"      : "qiplx_1K_Normal.jpg"
                }
              ]
            },
            {
              "resolution" : "512x512",
              "formats"    : [
                {
                  "mimeType" : "image/x-exr",
                  "bitDepth" : 16,
                  "uri"      : "qiplx_512_Normal.exr"
                },
                {
                  "mimeType" : "image/jpeg",
                  "bitDepth" : 8,
                  "uri"      : "qiplx_512_Normal.jpg"
                }
              ]
            },
            {
              "resolution" : "256x256",
              "formats"    : [
                {
                  "mimeType" : "image/x-exr",
                  "bitDepth" : 16,
                  "uri"      : "qiplx_256_Normal.exr"
                },
                {
                  "mimeType" : "image/jpeg",
                  "bitDepth" : 8,
                  "uri"      : "qiplx_256_Normal.jpg"
                }
              ]
            }
          ]
        }
      ]
    },
    {
      "type" : "roughness",
      "name" : "Roughness",
      "minIntensity" : 181,
      "maxIntensity" : 255,
      "averageColor" : "#D4D4D4",
      "colorSpace"   : "Linear",
      "uris"         : [
        {
          "physicalSize" : "0.5x0.5",
          "resolutions"  : [
            {
              "resolution" : "4096x4096",
              "formats"    : [
                {
                  "mimeType" : "image/x-exr",
                  "bitDepth" : 32,
                  "uri"      : "qiplx_4K_Roughness.exr"
                },
                {
                  "mimeType" : "image/jpeg",
                  "bitDepth" : 8,
                  "uri"      : "qiplx_4K_Roughness.jpg"
                }
              ]
            },
            {
              "resolution" : "2048x2048",
              "formats"    : [
                {
                  "mimeType" : "image/x-exr",
                  "bitDepth" : 32,
                  "uri"      : "qiplx_2K_Roughness.exr"
                },
                {
                  "mimeType" : "image/jpeg",
                  "bitDepth" : 8,
                  "uri"      : "qiplx_2K_Roughness.jpg"
                }
              ]
            },
            {
              "resolution" : "1024x1024",
              "formats"    : [
                {
                  "mimeType" : "image/x-exr",
                  "bitDepth" : 32,
                  "uri"      : "qiplx_1K_Roughness.exr"
                },
                {
                  "mimeType" : "image/jpeg",
                  "bitDepth" : 8,
                  "uri"      : "qiplx_1K_Roughness.jpg"
                }
              ]
            },
            {
              "resolution" : "512x512",
              "formats"    : [
                {
                  "mimeType" : "image/x-exr",
                  "bitDepth" : 32,
                  "uri"      : "qiplx_512_Roughness.exr"
                },
                {
                  "mimeType" : "image/jpeg",
                  "bitDepth" : 8,
                  "uri"      : "qiplx_512_Roughness.jpg"
                }
              ]
            },
            {
              "resolution" : "256x256",
              "formats"    : [
                {
                  "mimeType" : "image/x-exr",
                  "bitDepth" : 32,
                  "uri"      : "qiplx_256_Roughness.exr"
                },
                {
                  "mimeType" : "image/jpeg",
                  "bitDepth" : 8,
                  "uri"      : "qiplx_256_Roughness.jpg"
                }
              ]
            }
          ]
        }
      ]
    },
    {
      "type" : "specular",
      "name" : "Specular",
      "minIntensity" : 0,
      "maxIntensity" : 63,
      "averageColor" : "#272727",
      "colorSpace"   : "sRGB",
      "uris"         : [
        {
          "physicalSize" : "0.5x0.5",
          "resolutions"  : [
            {
              "resolution" : "4096x4096",
              "formats"    : [
                {
                  "mimeType" : "image/x-exr",
                  "bitDepth" : 16,
                  "uri"      : "qiplx_4K_Specular.exr"
                },
                {
                  "mimeType" : "image/jpeg",
                  "bitDepth" : 8,
                  "uri"      : "qiplx_4K_Specular.jpg"
                }
              ]
            },
            {
              "resolution" : "2048x2048",
              "formats"    : [
                {
                  "mimeType" : "image/x-exr",
                  "bitDepth" : 16,
                  "uri"      : "qiplx_2K_Specular.exr"
                },
                {
                  "mimeType" : "image/jpeg",
                  "bitDepth" : 8,
                  "uri"      : "qiplx_2K_Specular.jpg"
                }
              ]
            },
            {
              "resolution" : "1024x1024",
              "formats"    : [
                {
                  "mimeType" : "image/x-exr",
                  "bitDepth" : 16,
                  "uri"      : "qiplx_1K_Specular.exr"
                },
                {
                  "mimeType" : "image/jpeg",
                  "bitDepth" : 8,
                  "uri"      : "qiplx_1K_Specular.jpg"
                }
              ]
            },
            {
              "resolution" : "512x512",
              "formats"    : [
                {
                  "mimeType" : "image/x-exr",
                  "bitDepth" : 16,
                  "uri"      : "qiplx_512_Specular.exr"
                },
                {
                  "mimeType" : "image/jpeg",
                  "bitDepth" : 8,
                  "uri"      : "qiplx_512_Specular.jpg"
                }
              ]
            },
            {
              "resolution" : "256x256",
              "formats"    : [
                {
                  "mimeType" : "image/x-exr",
                  "bitDepth" : 16,
                  "uri"      : "qiplx_256_Specular.exr"
                },
                {
                  "mimeType" : "image/jpeg",
                  "bitDepth" : 8,
                  "uri"      : "qiplx_256_Specular.jpg"
                }
              ]
            }
          ]
        }
      ]
    }
  ],
  "points"       : 1,
  "references"   : [
  ]
}
